# This is a simulated data using four variables:
#   indID: sample ID based on prefix ind_
#   height: sampled from a normal distribution with mean 1.8 and sd of 0.1
#   weight: sampled from a normal distribution with mean 80 and sd of 15
#   control: assignment to control ("TRUE") or cohort ("FALSE") based on function sample()
"indID"	"height"	"weight"	"control"
"ind_1"	1.65033728456442	57.1526634340687	"TRUE"
"ind_2"	1.77766143564434	73.6704768442674	"TRUE"
"ind_3"	2.00017192277729	100.413866961215	"FALSE"
"ind_4"	1.82217038162136	106.306922680023	"TRUE"
"ind_5"	1.81643729092464	103.525471015292	"FALSE"
"ind_6"	1.833262360885	99.4513335492162	"TRUE"
"ind_7"	1.76147920009086	76.4360562283458	"TRUE"
"ind_8"	1.66012459734421	61.6377479647894	"TRUE"
"ind_9"	2.06757407958518	75.0828097978989	"TRUE"
"ind_10"	1.7576313911318	43.8132458559163	"FALSE"
"ind_11"	1.77013984880669	75.2931068983492	"TRUE"
"ind_12"	1.6207658273147	104.898180569686	"FALSE"
"ind_13"	1.77519917749319	81.9642965091128	"TRUE"
"ind_14"	1.77526960816254	96.4383302403438	"TRUE"
"ind_15"	1.77444896214737	87.3401143541587	"TRUE"
"ind_16"	1.62130618999074	68.3163455682702	"TRUE"
"ind_17"	1.97846628160248	106.15339029394	"TRUE"
"ind_18"	1.97635863477459	78.824190720034	"TRUE"
"ind_19"	1.86896002219341	65.3666931121618	"FALSE"
"ind_20"	1.68992593555761	81.0598973710785	"FALSE"
"ind_21"	1.87145093568978	57.2210070676521	"TRUE"
"ind_22"	1.7753529683066	92.9566854918698	"TRUE"
"ind_23"	1.76802138340728	87.5235257804655	"FALSE"
"ind_24"	1.93626442929547	74.6782800552952	"TRUE"
"ind_25"	1.67721174100173	72.6735666861321	"FALSE"
"ind_26"	1.74887807672495	94.0444092093905	"FALSE"
"ind_27"	1.7268805000935	64.0638742036679	"TRUE"
"ind_28"	1.80197520068768	65.2426869244342	"FALSE"
"ind_29"	1.642713608529	86.3637181553012	"TRUE"
"ind_30"	1.72966667301717	73.2302977917105	"FALSE"
"ind_31"	1.87159320889077	93.8762719508585	"TRUE"
"ind_32"	1.84652149064231	77.0206878528153	"FALSE"
"ind_33"	1.70260976935957	97.922765253506	"FALSE"
"ind_34"	1.85592177304683	87.4331705777023	"FALSE"
"ind_35"	1.55673602545943	46.3227113886054	"FALSE"
"ind_36"	1.76595150732979	59.9694295937267	"FALSE"
"ind_37"	1.87130331948502	99.2416280926654	"TRUE"
"ind_38"	1.73409626135109	90.3619385626057	"FALSE"
"ind_39"	1.79635973774335	65.4940599821254	"TRUE"
"ind_40"	1.64067136984731	59.8130947246984	"FALSE"
"ind_41"	1.88477927972478	95.504980839736	"TRUE"
"ind_42"	1.61496111513394	67.8233531050542	"TRUE"
"ind_43"	1.76763493683097	107.025882179273	"FALSE"
"ind_44"	1.77447518874968	106.573129405691	"TRUE"
"ind_45"	1.80609212273067	58.1796294529641	"FALSE"
"ind_46"	1.71765083709811	67.3151853113654	"FALSE"
"ind_47"	1.9829730484836	61.2428051101373	"TRUE"
"ind_48"	1.65700837842185	90.0093210185626	"FALSE"
"ind_49"	1.82541371430046	60.6384546854355	"FALSE"
"ind_50"	1.5060226304664	49.4749469229664	"FALSE"
"ind_51"	1.80024158089435	110.320204917388	"FALSE"
"ind_52"	1.85096655712619	95.0896023141826	"FALSE"
"ind_53"	1.6915279998886	92.256854018375	"TRUE"
"ind_54"	1.87048329768776	70.0401757463413	"TRUE"
"ind_55"	1.83309763499942	79.830781531244	"TRUE"
"ind_56"	1.89763274729764	89.2951588431469	"FALSE"
"ind_57"	1.71566601196013	60.781418870537	"FALSE"
"ind_58"	NA	78.1360801043593	"TRUE"
"ind_59"	1.62284686513571	82.6361248175266	"TRUE"
"ind_60"	1.76775296583541	105.391606917091	"TRUE"
"ind_61"	1.66611992576455	89.631990758104	"NA"
"ind_62"	1.86881560281461	99.2334954852381	"FALSE"
"ind_63"	1.80712806522506	82.1082046032108	"TRUE"
"ind_64"	2.01897523592792	63.3124597522915	"FALSE"
"ind_65"	1.68422924006985	74.9048454205715	"FALSE"
"ind_66"	1.91816880640923	55.0285304110629	"TRUE"
"ind_67"	1.74726316383918	93.9327764258041	"TRUE"
"ind_68"	1.65433719886892	101.252402520737	"TRUE"
"ind_69"	1.85729673704932	79.0591883355948	"FALSE"
"ind_70"	1.65666222953278	65.2864649585319	"TRUE"
"ind_71"	1.69448149814735	96.3072537685551	"TRUE"
"ind_72"	1.7266888122578	82.0899053984103	"TRUE"
"ind_73"	1.82109072642513	74.2059185348932	"TRUE"
"ind_74"	1.7001079272939	96.8537813477002	"FALSE"
"ind_75"	1.90778503232056	NA	"FALSE"
"ind_76"	1.68010256174921	97.2343865484355	"FALSE"
"ind_77"	1.82166370351847	67.3628561159487	"TRUE"
"ind_78"	1.81430870297889	85.8712001058915	
"ind_79"	1.6934249908947	93.3706586347796	"TRUE"
"ind_80"	1.75713765892982	59.9711193116851	"TRUE"
"ind_81"	1.73438205232287	85.971852167524	"TRUE"
"ind_82"	1.89593943268576	78.3261979557676	"FALSE"
"ind_83"	1.95560526361022	90.1361587496343	"TRUE"
"ind_84"	1.69592035662118	68.1710309693117	"FALSE"
"ind_85"	1.89305724085402	78.6952049891376	"FALSE"
"ind_86"	1.79245540689878	100.734260116337	"TRUE"
"ind_87"	1.6032804650949	82.5273524571204	"TRUE"
"ind_88"	1.72440963573548	92.3478642241268	"TRUE"
"ind_89"	1.84611491605068	76.6865810357534	"TRUE"
"ind_90"	1.81451066310479	64.5591251792793	"FALSE"
"ind_91"	1.55576886789186	79.8361146372931	"FALSE"
"ind_92"	1.85803186854516	61.6251326683884	"TRUE"
"ind_93"	1.86550519984867	41.0583291732504	"FALSE"
"ind_94"	1.76954911627406	97.5368388798723	"TRUE"
"ind_95"	1.72924317673827	63.6963677453386	"FALSE"
"ind_96"	1.99715720144782	52.6087548103038	"FALSE"
"ind_97"	1.79100013193523	94.9292271093885	"TRUE"
"ind_98"	1.79859827480681	79.8220732785389	"TRUE"
"ind_99"	1.68765430628898	71.0055740787259	"FALSE"
"ind_100"	1.66558698766238	77.3307802009684	"TRUE"
# In total: 100 individuals
